{
    "version": "https://jsonfeed.org/version/1",
    "title": "Blog",
    "description": "",
    "home_page_url": "https://luigipacheco.gitlab.io/lpwebsite",
    "feed_url": "https://luigipacheco.gitlab.io/lpwebsite/feed.json",
    "user_comment": "",
    "author": {
        "name": "Luigi"
    },
    "items": [
        {
            "id": "https://luigipacheco.gitlab.io/lpwebsite/hello-world.html",
            "url": "https://luigipacheco.gitlab.io/lpwebsite/hello-world.html",
            "title": "Hello World",
            "summary": "Test post",
            "content_html": "Test post",
            "image": "https://luigipacheco.gitlab.io/lpwebsite/media/posts/1/",
            "author": {
                "name": "Luigi"
            },
            "tags": [
            ],
            "date_published": "2018-11-12T10:44:55+01:00",
            "date_modified": "2018-11-12T10:44:55+01:00"
        }
    ]
}
